<?xml version="1.0" encoding="UTF-8" standalone="no"?>
<!-- Created with Inkscape (http://www.inkscape.org/) -->

<svg
   width="40.864132mm"
   height="40.864128mm"
   viewBox="0 0 40.864132 40.864128"
   version="1.1"
   id="svg997"
   inkscape:version="1.1.1 (c3084ef, 2021-09-22)"
   sodipodi:docname="nord.svg"
   xmlns:inkscape="http://www.inkscape.org/namespaces/inkscape"
   xmlns:sodipodi="http://sodipodi.sourceforge.net/DTD/sodipodi-0.dtd"
   xmlns="http://www.w3.org/2000/svg"
   xmlns:svg="http://www.w3.org/2000/svg">
  <sodipodi:namedview
     id="namedview999"
     pagecolor="#ffffff"
     bordercolor="#999999"
     borderopacity="1"
     inkscape:pageshadow="0"
     inkscape:pageopacity="0"
     inkscape:pagecheckerboard="0"
     inkscape:document-units="mm"
     showgrid="false"
     fit-margin-top="0"
     fit-margin-left="0"
     fit-margin-right="0"
     fit-margin-bottom="0"
     inkscape:zoom="0.42404602"
     inkscape:cx="-104.94144"
     inkscape:cy="160.35996"
     inkscape:window-width="1280"
     inkscape:window-height="698"
     inkscape:window-x="0"
     inkscape:window-y="25"
     inkscape:window-maximized="0"
     inkscape:current-layer="layer1" />
  <defs
     id="defs994" />
  <g
     inkscape:label="Calque 1"
     inkscape:groupmode="layer"
     id="layer1"
     transform="translate(-31.979699,-106.2297)">
    <g
       id="g978"
       style="display:inline"
       transform="translate(45.054307,79.23857)">
      <rect
         style="fill:none;fill-opacity:1;fill-rule:evenodd;stroke:none;stroke-width:1;stroke-miterlimit:4;stroke-dasharray:none;stroke-opacity:1"
         id="rect2303"
         width="40.864132"
         height="40.864128"
         x="-13.074608"
         y="26.991131" />
      <g
         id="g2277"
         transform="translate(-2.1807522,-64.490056)">
        <g
           id="g3109"
           transform="translate(-59.677634,29.731867)"
           style="stroke-width:3;stroke-miterlimit:4;stroke-dasharray:none">
          <path
             style="display:inline;fill:#000000;fill-opacity:1;stroke:#ffdc00;stroke-width:3;stroke-linecap:round;stroke-linejoin:round;stroke-miterlimit:4;stroke-dasharray:none;stroke-opacity:1"
             d="M 60.69079,99.398446 H 77.740991 L 69.229438,82.359318 60.69079,99.398446"
             id="path2766-5"
             sodipodi:nodetypes="cccc" />
          <path
             style="display:inline;fill:#000000;fill-opacity:1;stroke:#ffdc00;stroke-width:3;stroke-linecap:round;stroke-linejoin:round;stroke-miterlimit:4;stroke-dasharray:none;stroke-opacity:1"
             d="M 60.69079,82.003285 H 77.740991 L 69.229438,64.964156 60.69079,82.003285"
             id="path2766-5-2"
             sodipodi:nodetypes="cccc" />
        </g>
      </g>
    </g>
  </g>
</svg>
