<?xml version="1.0" encoding="UTF-8" standalone="no"?>
<!-- Created with Inkscape (http://www.inkscape.org/) -->

<svg
   width="40.864132mm"
   height="40.864128mm"
   viewBox="0 0 40.864132 40.864128"
   version="1.1"
   id="svg880"
   inkscape:version="1.1.1 (c3084ef, 2021-09-22)"
   sodipodi:docname="saine.svg"
   xmlns:inkscape="http://www.inkscape.org/namespaces/inkscape"
   xmlns:sodipodi="http://sodipodi.sourceforge.net/DTD/sodipodi-0.dtd"
   xmlns="http://www.w3.org/2000/svg"
   xmlns:svg="http://www.w3.org/2000/svg">
  <sodipodi:namedview
     id="namedview882"
     pagecolor="#ffffff"
     bordercolor="#999999"
     borderopacity="1"
     inkscape:pageshadow="0"
     inkscape:pageopacity="0"
     inkscape:pagecheckerboard="0"
     inkscape:document-units="mm"
     showgrid="false"
     fit-margin-top="0"
     fit-margin-left="0"
     fit-margin-right="0"
     fit-margin-bottom="0"
     inkscape:zoom="0.75751758"
     inkscape:cx="-82.506336"
     inkscape:cy="23.761825"
     inkscape:window-width="1280"
     inkscape:window-height="690"
     inkscape:window-x="0"
     inkscape:window-y="25"
     inkscape:window-maximized="0"
     inkscape:current-layer="g2250" />
  <defs
     id="defs877" />
  <g
     inkscape:label="Calque 1"
     inkscape:groupmode="layer"
     id="layer1"
     transform="translate(-139.49101,-152.18332)">
    <g
       id="g998"
       style="display:inline"
       transform="translate(-123.92882,61.007974)">
      <g
         id="g2250"
         transform="matrix(0.9,0,0,0.9,51.411351,4.8484741)">
        <circle
           style="fill:#fdffff;fill-opacity:1;fill-rule:evenodd;stroke:#ff0000;stroke-width:3;stroke-miterlimit:4;stroke-dasharray:none;stroke-opacity:1"
           id="path2078"
           cx="258.16513"
           cy="110.05987"
           r="7.4732008" />
        <circle
           style="display:inline;fill:#ffffff;fill-opacity:1;fill-rule:evenodd;stroke:#ff0000;stroke-width:3;stroke-miterlimit:4;stroke-dasharray:none;stroke-opacity:1"
           id="path2078-0"
           cx="258.36942"
           cy="127.18221"
           r="7.4732008" />
      </g>
      <rect
         style="display:inline;fill:none;fill-opacity:1;fill-rule:evenodd;stroke:none;stroke-width:1;stroke-miterlimit:4;stroke-dasharray:none;stroke-opacity:1"
         id="rect2303-7-3-4-2-8-1"
         width="40.864132"
         height="40.864128"
         x="263.41983"
         y="91.175346" />
    </g>
  </g>
</svg>
