<?xml version="1.0" encoding="utf-8"?>
<!-- Generator: Adobe Illustrator 25.0.0, SVG Export Plug-In . SVG Version: 6.00 Build 0)  -->
<svg version="1.1" id="Layer_1" xmlns="http://www.w3.org/2000/svg" xmlns:xlink="http://www.w3.org/1999/xlink" x="0px" y="0px"
	 viewBox="0 0 256 256" style="enable-background:new 0 0 256 256;" xml:space="preserve">
<style type="text/css">
	.st0{fill:#28CD41;}
</style>
<g id="Light-M" transform="matrix(1 0 0 1 1095.41 1126)">
	<path class="st0" d="M-967.4-870c17.5,0,34-3.3,49.5-10c15.4-6.7,29.1-15.9,40.8-27.7c11.8-11.8,21-25.4,27.7-40.8
		c6.7-15.4,10-31.9,10-49.5s-3.3-34-10-49.5c-6.7-15.4-15.9-29.1-27.7-40.8c-11.8-11.8-25.4-21-40.9-27.7c-15.5-6.7-32-10-49.5-10
		s-34,3.3-49.5,10c-15.4,6.7-29,15.9-40.8,27.7c-11.7,11.8-21,25.4-27.6,40.8s-10,31.9-10,49.5s3.3,34,10,49.5
		c6.7,15.4,15.9,29.1,27.7,40.8c11.8,11.8,25.4,21,40.8,27.7C-1001.4-873.3-984.9-870-967.4-870z M-967.4-886.6
		c-15.4,0-29.8-2.9-43.3-8.6c-13.5-5.7-25.3-13.7-35.5-23.9c-10.2-10.2-18.2-22.1-23.9-35.5c-5.7-13.5-8.6-27.9-8.6-43.3
		s2.9-29.8,8.6-43.3c5.7-13.5,13.7-25.4,23.9-35.6c10.2-10.3,22-18.2,35.5-24c13.4-5.7,27.9-8.6,43.3-8.6c15.5,0,29.9,2.9,43.4,8.6
		c13.4,5.7,25.3,13.7,35.5,24c10.3,10.3,18.3,22.1,24.1,35.6c5.8,13.5,8.7,27.9,8.7,43.3s-2.9,29.8-8.7,43.3
		c-5.8,13.5-13.8,25.3-23.9,35.5c-10.2,10.2-22,18.2-35.5,23.9C-937.4-889.5-951.9-886.6-967.4-886.6z"/>
	<path class="st0" d="M-1023.1-997.9c0,2.3,0.8,4.2,2.4,5.7c1.6,1.5,3.6,2.3,6.1,2.3h38.9v39.1c0,2.4,0.7,4.3,2.2,5.9
		c1.5,1.5,3.4,2.3,5.7,2.3c2.5,0,4.5-0.8,6.1-2.3c1.6-1.5,2.4-3.5,2.4-5.9v-39.1h38.9c2.4,0,4.4-0.8,5.9-2.3
		c1.6-1.5,2.4-3.4,2.4-5.7c0-2.5-0.8-4.5-2.4-6.1s-3.6-2.4-5.9-2.4h-38.9v-38.8c0-2.6-0.8-4.6-2.4-6.1c-1.6-1.5-3.7-2.3-6.1-2.3
		c-2.3,0-4.2,0.8-5.7,2.3c-1.5,1.5-2.2,3.6-2.2,6.1v38.8h-38.9c-2.6,0-4.6,0.8-6.1,2.4C-1022.3-1002.4-1023.1-1000.3-1023.1-997.9z"
		/>
</g>
</svg>
