<?xml version="1.0" encoding="utf-8"?>
<!-- Generator: Adobe Illustrator 25.0.0, SVG Export Plug-In . SVG Version: 6.00 Build 0)  -->
<svg version="1.1" id="Layer_1" xmlns="http://www.w3.org/2000/svg" xmlns:xlink="http://www.w3.org/1999/xlink" x="0px" y="0px"
	 viewBox="0 0 256 256" style="enable-background:new 0 0 256 256;" xml:space="preserve">
<path d="M225.2,122.1L48.8,0.9C44-2.3,37.5,1.1,37.5,6.9v242.3c0,5.8,6.5,9.2,11.3,5.9l176.4-121.1
	C229.4,131.1,229.4,124.9,225.2,122.1z"/>
</svg>
