<?xml version="1.0" encoding="UTF-8" standalone="no"?>
<svg
   xmlns:dc="http://purl.org/dc/elements/1.1/"
   xmlns:cc="http://creativecommons.org/ns#"
   xmlns:rdf="http://www.w3.org/1999/02/22-rdf-syntax-ns#"
   xmlns:svg="http://www.w3.org/2000/svg"
   xmlns="http://www.w3.org/2000/svg"
   xmlns:sodipodi="http://sodipodi.sourceforge.net/DTD/sodipodi-0.dtd"
   xmlns:inkscape="http://www.inkscape.org/namespaces/inkscape"
   version="1.1"
   x="0px"
   y="0px"
   viewBox="0 0 507.711 512"
   enable-background="new 0 0 512 512"
   xml:space="preserve"
   id="svg16"
   sodipodi:docname="instrument_central.svg"
   width="507.711"
   height="512"
   inkscape:version="0.92.2 (5c3e80d, 2017-08-06)"><metadata
     id="metadata22"><rdf:RDF><cc:Work
         rdf:about=""><dc:format>image/svg+xml</dc:format><dc:type
           rdf:resource="http://purl.org/dc/dcmitype/StillImage" /><dc:title></dc:title></cc:Work></rdf:RDF></metadata><defs
     id="defs20" /><sodipodi:namedview
     pagecolor="#ffffff"
     bordercolor="#666666"
     borderopacity="1"
     objecttolerance="10"
     gridtolerance="10"
     guidetolerance="10"
     inkscape:pageopacity="0"
     inkscape:pageshadow="2"
     inkscape:window-width="1920"
     inkscape:window-height="1001"
     id="namedview18"
     showgrid="false"
     fit-margin-top="0"
     fit-margin-left="0"
     fit-margin-right="0"
     fit-margin-bottom="0"
     inkscape:zoom="0.64765625"
     inkscape:cx="-192.91914"
     inkscape:cy="214.8812"
     inkscape:window-x="1911"
     inkscape:window-y="-9"
     inkscape:window-maximized="1"
     inkscape:current-layer="svg16" /><g
     id="g10"
     transform="translate(-2.145)"><path
       d="m 256.004,64 c 5.891,0 10.664,-4.773 10.664,-10.664 0,-5.891 -4.773,-10.672 -10.664,-10.672 -5.891,0 -10.664,4.781 -10.664,10.672 0,5.891 4.773,10.664 10.664,10.664 z"
       id="path2"
       inkscape:connector-curvature="0" /><path
       d="m 256.004,288 c 5.891,0 10.664,-4.781 10.664,-10.656 0,-5.898 -4.773,-10.68 -10.664,-10.68 -5.891,0 -10.664,4.781 -10.664,10.68 0,5.875 4.773,10.656 10.664,10.656 z"
       id="path4"
       inkscape:connector-curvature="0" /><path
       d="m 499.793,433.75 10.063,-4 -30.313,-73.188 -9.531,3.375 c -12.625,4.469 -25.375,8.516 -38.219,12.172 L 355.684,224 h 92.328 c 11.781,0 21.313,-14.328 21.313,-32 0,-17.672 -9.531,-32 -21.313,-32 H 322.793 L 289.371,94.93 C 301.543,85.157 309.34,70.157 309.34,53.336 309.34,23.875 285.449,0 256.004,0 c -29.453,0 -53.336,23.875 -53.336,53.336 0,16.82 7.797,31.805 19.961,41.586 L 80.121,372.094 C 67.308,368.438 54.598,364.391 42.004,359.938 l -9.539,-3.375 -30.32,73.187 10.078,4 c 57.789,22.844 118.031,37.313 179.781,43.203 v 13.703 h -21.336 c -5.891,0 -10.664,4.781 -10.664,10.688 0,5.875 4.773,10.656 10.664,10.656 h 21.336 128.008 21.313 c 5.906,0 10.688,-4.781 10.688,-10.656 0,-5.906 -4.781,-10.688 -10.688,-10.688 h -21.313 v -13.703 c 61.75,-5.89 121.984,-20.359 179.781,-43.203 z m -17.969,-15.937 c -52.188,19.625 -106.375,32.234 -161.813,37.703 v -28.859 c 0,-4.016 -0.375,-7.969 -1.094,-11.781 0.453,-0.047 0.906,-0.094 1.359,-0.125 l 2.578,19.563 21.156,-2.781 -2.531,-19.172 c 8.906,-1.141 17.797,-2.484 26.641,-3.984 l 3.984,17.938 20.813,-4.609 -3.813,-17.25 c 10.063,-2.047 20.063,-4.328 30.016,-6.859 l 4.797,15.234 20.344,-6.422 -4.531,-14.375 c 9.328,-2.688 18.594,-5.578 27.813,-8.688 z M 311.137,394.156 c -5.609,-9.5 -13.594,-17.406 -23.125,-22.922 v -84.422 c 20.875,-2.031 44.281,-5.906 70,-11.609 l 52.672,102.516 c -32.641,8.078 -65.891,13.562 -99.547,16.437 z M 266.668,105.594 V 160 H 245.34 v -54.406 c 3.445,0.703 7.008,1.07 10.664,1.07 3.656,0 7.219,-0.367 10.664,-1.07 z M 224.004,160 v 64 41.383 c -18.016,-1.844 -38.055,-5.125 -59.977,-9.828 L 224.004,138.899 Z M 245.34,277.344 V 224 h 21.328 v 53.344 86.219 c -3.469,-0.594 -7.031,-0.906 -10.664,-0.906 -3.633,0 -7.195,0.313 -10.664,0.906 V 277.344 Z M 347.918,255.57 c -21.906,4.695 -41.922,7.969 -59.906,9.813 V 224 H 331.7 Z M 448.012,192 c 0,5.219 -1.469,8.922 -2.563,10.664 H 245.34 v -21.328 h 200.109 c 1.094,1.742 2.563,5.445 2.563,10.664 z m -160,-32 V 138.953 L 298.824,160 Z M 256.004,21.336 c 17.633,0 32.008,14.352 32.008,32 0,17.641 -14.375,32 -32.008,32 -17.648,0 -32,-14.359 -32,-32 0,-17.648 14.351,-32 32,-32 z M 153.926,275.188 c 25.734,5.719 49.172,9.594 70.078,11.625 v 84.406 c -9.539,5.531 -17.523,13.438 -23.133,22.938 -33.695,-2.875 -66.977,-8.375 -99.648,-16.469 z M 30.184,417.813 44.457,383.344 c 9.219,3.109 18.492,6 27.82,8.688 l -4.539,14.375 20.344,6.422 4.805,-15.234 c 9.352,2.375 18.75,4.531 28.195,6.484 l -3.813,17.203 20.828,4.625 3.953,-17.844 c 9.453,1.641 18.945,3.063 28.469,4.297 l -2.523,19.172 21.156,2.781 2.57,-19.563 c 0.461,0.031 0.914,0.078 1.367,0.125 -0.711,3.813 -1.086,7.766 -1.086,11.781 v 28.859 C 136.543,450.047 82.363,437.438 30.184,417.813 Z m 183.148,72.843 v -64 c 0,-23.516 19.141,-42.656 42.672,-42.656 23.523,0 42.664,19.141 42.664,42.656 v 64 z"
       id="path6"
       inkscape:connector-curvature="0" /><path
       d="m 256.004,394.656 c -17.672,0 -32,14.344 -32,32 0,17.688 14.328,32 32,32 17.664,0 32.008,-14.313 32.008,-32 0,-17.656 -14.344,-32 -32.008,-32 z m 0,42.688 c -5.883,0 -10.672,-4.797 -10.672,-10.688 0,-5.875 4.789,-10.656 10.672,-10.656 5.883,0 10.664,4.781 10.664,10.656 0,5.891 -4.781,10.688 -10.664,10.688 z"
       id="path8"
       inkscape:connector-curvature="0" /></g></svg>