<?xml version="1.0" encoding="UTF-8" standalone="no"?>
<svg
   xmlns:dc="http://purl.org/dc/elements/1.1/"
   xmlns:cc="http://creativecommons.org/ns#"
   xmlns:rdf="http://www.w3.org/1999/02/22-rdf-syntax-ns#"
   xmlns:svg="http://www.w3.org/2000/svg"
   xmlns="http://www.w3.org/2000/svg"
   xmlns:sodipodi="http://sodipodi.sourceforge.net/DTD/sodipodi-0.dtd"
   xmlns:inkscape="http://www.inkscape.org/namespaces/inkscape"
   version="1.1"
   x="0px"
   y="0px"
   viewBox="0 0 51.591999 63.123001"
   enable-background="new 0 0 100 100"
   xml:space="preserve"
   id="svg8"
   sodipodi:docname="noun_Anchor_182210.svg"
   width="51.591999"
   height="63.123001"
   inkscape:version="0.92.2 (5c3e80d, 2017-08-06)"><metadata
     id="metadata14"><rdf:RDF><cc:Work
         rdf:about=""><dc:format>image/svg+xml</dc:format><dc:type
           rdf:resource="http://purl.org/dc/dcmitype/StillImage" /><dc:title></dc:title></cc:Work></rdf:RDF></metadata><defs
     id="defs12" /><sodipodi:namedview
     pagecolor="#ffffff"
     bordercolor="#666666"
     borderopacity="1"
     objecttolerance="10"
     gridtolerance="10"
     guidetolerance="10"
     inkscape:pageopacity="0"
     inkscape:pageshadow="2"
     inkscape:window-width="1920"
     inkscape:window-height="1001"
     id="namedview10"
     showgrid="false"
     fit-margin-top="0"
     fit-margin-left="0"
     fit-margin-right="0"
     fit-margin-bottom="0"
     inkscape:zoom="1.888"
     inkscape:cx="-44.384085"
     inkscape:cy="20.437"
     inkscape:window-x="1911"
     inkscape:window-y="-9"
     inkscape:window-maximized="1"
     inkscape:current-layer="svg8" /><path
     d="m 51.592,34.824 c 0,-0.015 -0.004,-0.028 -0.005,-0.044 0.01,-0.651 -0.23,-1.306 -0.729,-1.803 C 49.881,32 48.299,32 47.323,32.977 L 42.2,38.1 c -0.977,0.977 -0.977,2.559 0,3.535 0.488,0.488 1.128,0.732 1.768,0.732 0.424,0 0.844,-0.117 1.224,-0.332 -2.771,7 -9.346,12.413 -16.896,13.412 V 21.401 h 9.172 v 0.955 c 0,1.381 1.119,2.5 2.5,2.5 1.381,0 2.5,-1.119 2.5,-2.5 v -4.41 c 0,-1.381 -1.119,-2.5 -2.5,-2.5 -1.381,0 -2.5,1.119 -2.5,2.5 v 0.955 H 28.296 V 16.263 C 31.668,15.199 34.12,12.042 34.12,8.324 34.12,3.734 30.386,0 25.796,0 c -4.59,0 -8.324,3.734 -8.324,8.324 0,3.719 2.452,6.875 5.824,7.939 v 2.638 h -9.174 v -0.955 c 0,-1.381 -1.119,-2.5 -2.5,-2.5 -1.381,0 -2.5,1.119 -2.5,2.5 v 4.41 c 0,1.381 1.119,2.5 2.5,2.5 1.381,0 2.5,-1.119 2.5,-2.5 v -0.955 h 9.174 V 55.448 C 15.745,54.45 9.17,49.037 6.4,42.037 c 0.38,0.214 0.798,0.331 1.222,0.331 0.64,0 1.279,-0.244 1.768,-0.732 0.977,-0.977 0.977,-2.559 0,-3.535 L 4.267,32.978 c -0.977,-0.977 -2.559,-0.977 -3.535,0 -0.5,0.5 -0.74,1.158 -0.729,1.813 C 0.003,34.802 0,34.812 0,34.824 0,48.146 11.331,59.883 24.546,60.586 v 1.287 c 0,0.69 0.56,1.25 1.25,1.25 0.69,0 1.25,-0.56 1.25,-1.25 V 60.586 C 40.259,59.882 51.591,48.147 51.592,34.824 Z M 25.796,4.999 c 1.833,0 3.324,1.491 3.324,3.324 0,1.833 -1.491,3.325 -3.324,3.325 -1.833,0 -3.324,-1.491 -3.324,-3.324 0,-1.833 1.491,-3.325 3.324,-3.325 z"
     id="path2"
     inkscape:connector-curvature="0" /></svg>