<?xml version="1.0" encoding="utf-8"?>
<!-- Generator: Adobe Illustrator 25.0.0, SVG Export Plug-In . SVG Version: 6.00 Build 0)  -->
<svg version="1.1" id="Layer_1" xmlns="http://www.w3.org/2000/svg" xmlns:xlink="http://www.w3.org/1999/xlink" x="0px" y="0px"
	 viewBox="0 0 256 256" style="enable-background:new 0 0 256 256;" xml:space="preserve">
<style type="text/css">
	.st0{fill:#A42A20;}
</style>
<path class="st0" d="M225,256H31c-17.1,0-31-13.9-31-31V31C0,13.9,13.9,0,31,0h194c17.1,0,31,13.9,31,31v194
	C256,242.1,242.1,256,225,256z"/>
</svg>
